Research Data Services R Workshops at Georgia State University - Data Cleaning in R
…
.data is the dataset you want to manipulate

this is true for the rest of the tidyverse

... is just a set of things that the verb does.

Side By Side

Filter
Select
Mutate

filter(.data = penguins, species == "Gentoo")

# A tibble: 124 × 8
   species island bill_length_mm bill_depth_mm flipper_len…¹ body_…² sex    year
   <fct>   <fct>           <dbl>         <dbl>         <int>   <int> <fct> <int>
 1 Gentoo  Biscoe           46.1          13.2           211    4500 fema…  2007
 2 Gentoo  Biscoe           50            16.3           230    5700 male   2007
 3 Gentoo  Biscoe           48.7          14.1           210    4450 fema…  2007
 4 Gentoo  Biscoe           50            15.2           218    5700 male   2007
 5 Gentoo  Biscoe           47.6          14.5           215    5400 male   2007
 6 Gentoo  Biscoe           46.5          13.5           210    4550 fema…  2007
 7 Gentoo  Biscoe           45.4          14.6           211    4800 fema…  2007
 8 Gentoo  Biscoe           46.7          15.3           219    5200 male   2007
 9 Gentoo  Biscoe           43.3          13.4           209    4400 fema…  2007
10 Gentoo  Biscoe           46.8          15.4           215    5150 male   2007
# … with 114 more rows, and abbreviated variable names ¹​flipper_length_mm,
#   ²​body_mass_g

select(.data = penguins, species)

# A tibble: 344 × 1
   species
   <fct>  
 1 Adelie 
 2 Adelie 
 3 Adelie 
 4 Adelie 
 5 Adelie 
 6 Adelie 
 7 Adelie 
 8 Adelie 
 9 Adelie 
10 Adelie 
# … with 334 more rows

mutate(.data = penguins, bill_length_mm_sq = bill_length_mm^2)

# A tibble: 344 × 9
   species island    bill_length_mm bill_d…¹ flipp…² body_…³ sex    year bill_…⁴
   <fct>   <fct>              <dbl>    <dbl>   <int>   <int> <fct> <int>   <dbl>
 1 Adelie  Torgersen           39.1     18.7     181    3750 male   2007   1529.
 2 Adelie  Torgersen           39.5     17.4     186    3800 fema…  2007   1560.
 3 Adelie  Torgersen           40.3     18       195    3250 fema…  2007   1624.
 4 Adelie  Torgersen           NA       NA        NA      NA <NA>   2007     NA 
 5 Adelie  Torgersen           36.7     19.3     193    3450 fema…  2007   1347.
 6 Adelie  Torgersen           39.3     20.6     190    3650 male   2007   1544.
 7 Adelie  Torgersen           38.9     17.8     181    3625 fema…  2007   1513.
 8 Adelie  Torgersen           39.2     19.6     195    4675 male   2007   1537.
 9 Adelie  Torgersen           34.1     18.1     193    3475 <NA>   2007   1163.
10 Adelie  Torgersen           42       20.2     190    4250 <NA>   2007   1764 
# … with 334 more rows, and abbreviated variable names ¹​bill_depth_mm,
#   ²​flipper_length_mm, ³​body_mass_g, ⁴​bill_length_mm_sq
…
