Research Data Services R Workshops at Georgia State University - Getting Started in ggplot
…
Shape Files

To read in shape files you use read_sf you should see something that looks like this!

Simple feature collection with 177 features and 1 field
Geometry type: MULTIPOLYGON
Dimension:     XY
Bounding box:  xmin: -180 ymin: -90 xmax: 180 ymax: 83.64513
Geodetic CRS:  WGS 84
# A tibble: 177 × 2
   SOVEREIGNT                                                           geometry
   <chr>                                                      <MULTIPOLYGON [°]>
 1 Fiji                        (((180 -16.06713, 180 -16.55522, 179.3641 -16.80…
 2 United Republic of Tanzania (((33.90371 -0.95, 34.07262 -1.05982, 37.69869 -…
 3 Western Sahara              (((-8.66559 27.65643, -8.665124 27.58948, -8.684…
 4 Canada                      (((-122.84 49, -122.9742 49.00254, -124.9102 49.…
 5 United States of America    (((-122.84 49, -120 49, -117.0312 49, -116.0482 …
 6 Kazakhstan                  (((87.35997 49.21498, 86.59878 48.54918, 85.7682…
 7 Uzbekistan                  (((55.96819 41.30864, 55.92892 44.99586, 58.5031…
 8 Papua New Guinea            (((141.0002 -2.600151, 142.7352 -3.289153, 144.5…
 9 Indonesia                   (((141.0002 -2.600151, 141.0171 -5.859022, 141.0…
10 Argentina                   (((-68.63401 -52.63637, -68.25 -53.1, -67.75 -53…
# … with 167 more rows
…
